2016/07/10 00:00:02 Subsidy[22971](INFO): Subsidy_Cli_Action_BatchKillSessions.perform(/pb/Ethna/class/Ethna_Backend.php:364): killsessions: no list
2016/07/10 00:30:02 Subsidy[20567](INFO): Subsidy_Cli_Action_BatchKillSessions.perform(/pb/Ethna/class/Ethna_Backend.php:364): killsessions: no list
2016/07/10 00:44:53 Subsidy[18745](INFO): Subsidy_Action_Login.perform(/pb/Ethna/class/Ethna_Backend.php:364): [] Subsidy_Action_Login!!
2016/07/10 01:00:01 Subsidy[12141](INFO): Subsidy_Cli_Action_BatchKillSessions.perform(/pb/Ethna/class/Ethna_Backend.php:364): killsessions: no list
2016/07/10 01:16:28 Subsidy[7173](INFO): Subsidy_Action_SecureRegistration.prepare(/pb/Ethna/class/Ethna_Backend.php:357): [] Subsidy_Action_SecureRegistration prepare()
2016/07/10 01:16:28 Subsidy[7173](INFO): Subsidy_Action_SecureRegistration.perform(/pb/Ethna/class/Ethna_Backend.php:364): [] Subsidy_Action_SecureRegistration perform()
2016/07/10 01:30:02 Subsidy[31541](INFO): Subsidy_Cli_Action_BatchKillSessions.perform(/pb/Ethna/class/Ethna_Backend.php:364): killsessions: no list
2016/07/10 02:00:01 Subsidy[14017](INFO): Subsidy_Cli_Action_BatchKillSessions.perform(/pb/Ethna/class/Ethna_Backend.php:364): killsessions: no list
2016/07/10 02:02:40 Subsidy[17716](INFO): Subsidy_Action_SecureRegistration.prepare(/pb/Ethna/class/Ethna_Backend.php:357): [] Subsidy_Action_SecureRegistration prepare()
2016/07/10 02:02:40 Subsidy[17716](INFO): Subsidy_Action_SecureRegistration.perform(/pb/Ethna/class/Ethna_Backend.php:364): [] Subsidy_Action_SecureRegistration perform()
2016/07/10 02:02:41 Subsidy[17716](INFO): Subsidy_Action_SecureRegistration.prepare(/pb/Ethna/class/Ethna_Backend.php:357): [] Subsidy_Action_SecureRegistration prepare()
2016/07/10 02:02:41 Subsidy[17716](INFO): Subsidy_Action_SecureRegistration.perform(/pb/Ethna/class/Ethna_Backend.php:364): [] Subsidy_Action_SecureRegistration perform()
2016/07/10 02:30:02 Subsidy[26739](INFO): Subsidy_Cli_Action_BatchKillSessions.perform(/pb/Ethna/class/Ethna_Backend.php:364): killsessions: no list
2016/07/10 03:00:02 Subsidy[6116](INFO): Subsidy_Cli_Action_BatchKillSessions.perform(/pb/Ethna/class/Ethna_Backend.php:364): killsessions: no list
2016/07/10 03:02:09 Subsidy[12187](INFO): Subsidy_Action_Login.perform(/pb/Ethna/class/Ethna_Backend.php:364): [] Subsidy_Action_Login!!
2016/07/10 03:30:02 Subsidy[28990](INFO): Subsidy_Cli_Action_BatchKillSessions.perform(/pb/Ethna/class/Ethna_Backend.php:364): killsessions: no list
2016/07/10 04:00:02 Subsidy[8038](INFO): Subsidy_Cli_Action_BatchKillSessions.perform(/pb/Ethna/class/Ethna_Backend.php:364): killsessions: no list
2016/07/10 04:30:02 Subsidy[21107](INFO): Subsidy_Cli_Action_BatchKillSessions.perform(/pb/Ethna/class/Ethna_Backend.php:364): killsessions: no list
2016/07/10 05:00:02 Subsidy[6727](INFO): Subsidy_Cli_Action_BatchKillSessions.perform(/pb/Ethna/class/Ethna_Backend.php:364): killsessions: no list
2016/07/10 05:30:02 Subsidy[20355](INFO): Subsidy_Cli_Action_BatchKillSessions.perform(/pb/Ethna/class/Ethna_Backend.php:364): killsessions: no list
2016/07/10 06:00:02 Subsidy[2223](INFO): Subsidy_Cli_Action_BatchKillSessions.perform(/pb/Ethna/class/Ethna_Backend.php:364): killsessions: no list
2016/07/10 06:30:02 Subsidy[16288](INFO): Subsidy_Cli_Action_BatchKillSessions.perform(/pb/Ethna/class/Ethna_Backend.php:364): killsessions: no list
2016/07/10 07:00:02 Subsidy[31631](INFO): Subsidy_Cli_Action_BatchKillSessions.perform(/pb/Ethna/class/Ethna_Backend.php:364): killsessions: no list
2016/07/10 07:30:02 Subsidy[15643](INFO): Subsidy_Cli_Action_BatchKillSessions.perform(/pb/Ethna/class/Ethna_Backend.php:364): killsessions: no list
2016/07/10 08:00:01 Subsidy[310](INFO): Subsidy_Cli_Action_BatchKillSessions.perform(/pb/Ethna/class/Ethna_Backend.php:364): killsessions: no list
2016/07/10 08:30:01 Subsidy[27708](INFO): Subsidy_Cli_Action_BatchKillSessions.perform(/pb/Ethna/class/Ethna_Backend.php:364): killsessions: no list
2016/07/10 08:47:08 Subsidy[20243](INFO): Subsidy_Action_Login.perform(/pb/Ethna/class/Ethna_Backend.php:364): [] Subsidy_Action_Login!!
2016/07/10 08:47:09 Subsidy[20243](INFO): Subsidy_Action_Login.perform(/pb/Ethna/class/Ethna_Backend.php:364): [] Subsidy_Action_Login!!
2016/07/10 08:56:26 Subsidy[9499](INFO): Subsidy_Action_SecureRegistration.prepare(/pb/Ethna/class/Ethna_Backend.php:357): [] Subsidy_Action_SecureRegistration prepare()
2016/07/10 08:56:26 Subsidy[9499](INFO): Subsidy_Action_SecureRegistration.perform(/pb/Ethna/class/Ethna_Backend.php:364): [] Subsidy_Action_SecureRegistration perform()
2016/07/10 08:56:26 Subsidy[9499](INFO): Subsidy_Action_SecureRegistration.prepare(/pb/Ethna/class/Ethna_Backend.php:357): [] Subsidy_Action_SecureRegistration prepare()
2016/07/10 08:56:26 Subsidy[9499](INFO): Subsidy_Action_SecureRegistration.perform(/pb/Ethna/class/Ethna_Backend.php:364): [] Subsidy_Action_SecureRegistration perform()
2016/07/10 09:00:02 Subsidy[18613](INFO): Subsidy_Cli_Action_BatchKillSessions.perform(/pb/Ethna/class/Ethna_Backend.php:364): killsessions: no list
2016/07/10 09:02:31 Subsidy[25166](INFO): Subsidy_Action_SecureConfirm.prepare(/pb/Ethna/class/Ethna_Backend.php:357): [] Subsidy_Action_SecureConfirm prepare()
2016/07/10 09:02:31 Subsidy[25166](INFO): Subsidy_Action_SecureConfirm.perform(/pb/Ethna/class/Ethna_Backend.php:364): [] Subsidy_Action_SecureConfirm perform()
2016/07/10 09:02:31 Subsidy[25166](INFO): Subsidy_View_SecureConfirm.preforward(/pb/Ethna/class/Ethna_Controller.php:975): [] Subsidy_View_SecureConfirm preforward()
2016/07/10 09:02:36 Subsidy[25166](INFO): Subsidy_Action_SecureComplete.prepare(/pb/Ethna/class/Ethna_Backend.php:357): [] Subsidy_Action_SecureComplete prepare()
2016/07/10 09:02:37 Subsidy[25166](INFO): Subsidy_Action_SecureComplete.perform(/pb/Ethna/class/Ethna_Backend.php:364): [] Subsidy_Mail::mailsender[MAIL SEND OK] TO:<showthis.2you+joseikin-now.com@gmail.com>
2016/07/10 09:02:38 Subsidy[25166](INFO): Subsidy_Action_SecureComplete.perform(/pb/Ethna/class/Ethna_Backend.php:364): [] Subsidy_Action_SecureComplete perform()
2016/07/10 09:02:38 Subsidy[25166](INFO): Subsidy_View_SecureComplete.preforward(/pb/Ethna/class/Ethna_Controller.php:975): [] Subsidy_View_SecureComplete preforward()
2016/07/10 09:03:10 Subsidy[25166](INFO): Subsidy_Action_SecureRegistration.prepare(/pb/Ethna/class/Ethna_Backend.php:357): [] Subsidy_Action_SecureRegistration prepare()
2016/07/10 09:03:10 Subsidy[25166](INFO): Subsidy_Action_SecureRegistration.perform(/pb/Ethna/class/Ethna_Backend.php:364): [] Subsidy_Action_SecureRegistration perform()
2016/07/10 09:03:12 Subsidy[25166](INFO): Subsidy_Action_SecureRegistration.prepare(/pb/Ethna/class/Ethna_Backend.php:357): [] Subsidy_Action_SecureRegistration prepare()
2016/07/10 09:03:12 Subsidy[25166](INFO): Subsidy_Action_SecureRegistration.perform(/pb/Ethna/class/Ethna_Backend.php:364): [] Subsidy_Action_SecureRegistration perform()
2016/07/10 09:03:14 Subsidy[25166](INFO): Subsidy_Action_SecureRegistration.prepare(/pb/Ethna/class/Ethna_Backend.php:357): [] Subsidy_Action_SecureRegistration prepare()
2016/07/10 09:03:14 Subsidy[25166](INFO): Subsidy_Action_SecureRegistration.perform(/pb/Ethna/class/Ethna_Backend.php:364): [] Subsidy_Action_SecureRegistration perform()
2016/07/10 09:03:24 Subsidy[25166](INFO): Subsidy_Action_Login.perform(/pb/Ethna/class/Ethna_Backend.php:364): [] Subsidy_Action_Login!!
2016/07/10 09:03:26 Subsidy[25166](INFO): Subsidy_Action_Login.perform(/pb/Ethna/class/Ethna_Backend.php:364): [] Subsidy_Action_Login!!
2016/07/10 09:03:43 Subsidy[25166](INFO): Subsidy_Action_LoginDo.prepare(/pb/Ethna/class/Ethna_Backend.php:357): [] view login_do
2016/07/10 09:03:43 Subsidy[25166](INFO): Subsidy_Authentication.auth(/app/action/Login/Do.php:121): login ->K7Mf1468108957(姓 名)
2016/07/10 09:03:43 Subsidy[25166](ERR): Ethna_DB_ADOdb._query(/pb/Ethna/class/DB/Ethna_DB_ADOdb.php:173): エラー SQL[
insert into LOG_ADMIN(
    admin_id,
    action,
    app_id,
    target_id,
    message,
    created
) values (
    ?,
    ?,
    ?,
    ?,
    ?,
    now()
)] CODE[1146] MESSAGE[Table 'navit_subsidy.LOG_ADMIN' doesn't exist] [ERROR CODE(4)]
2016/07/10 09:28:24 Subsidy[8931](INFO): Subsidy_Action_Login.perform(/pb/Ethna/class/Ethna_Backend.php:364): [K7Mf1468108957] Subsidy_Action_Login!!
2016/07/10 09:30:02 Subsidy[14694](INFO): Subsidy_Cli_Action_BatchKillSessions.perform(/pb/Ethna/class/Ethna_Backend.php:364): killsessions: no list
2016/07/10 10:00:02 Subsidy[11799](INFO): Subsidy_Cli_Action_BatchKillSessions.perform(/pb/Ethna/class/Ethna_Backend.php:364): Kill User session : 79ca2e7d5e58ded44921e7860e925c17d320425f5126b5f546f19bc070003d5e User ID : K7Mf1468108957
2016/07/10 10:12:57 Subsidy[24266](INFO): Subsidy_Action_SecureRegistration.prepare(/pb/Ethna/class/Ethna_Backend.php:357): [] Subsidy_Action_SecureRegistration prepare()
2016/07/10 10:12:57 Subsidy[24266](INFO): Subsidy_Action_SecureRegistration.perform(/pb/Ethna/class/Ethna_Backend.php:364): [] Subsidy_Action_SecureRegistration perform()
2016/07/10 10:30:02 Subsidy[10898](INFO): Subsidy_Cli_Action_BatchKillSessions.perform(/pb/Ethna/class/Ethna_Backend.php:364): killsessions: no list
2016/07/10 10:52:31 Subsidy[22346](INFO): Subsidy_Action_Login.perform(/pb/Ethna/class/Ethna_Backend.php:364): [] Subsidy_Action_Login!!
2016/07/10 10:52:42 Subsidy[22346](INFO): Subsidy_Action_LoginDo.prepare(/pb/Ethna/class/Ethna_Backend.php:357): [] view login_do
2016/07/10 10:52:42 Subsidy[22346](INFO): Subsidy_Authentication.auth(/app/action/Login/Do.php:121): login ->navitadmin2(ナビット 管理者)
2016/07/10 10:52:42 Subsidy[22346](ERR): Ethna_DB_ADOdb._query(/pb/Ethna/class/DB/Ethna_DB_ADOdb.php:173): エラー SQL[
insert into LOG_ADMIN(
    admin_id,
    action,
    app_id,
    target_id,
    message,
    created
) values (
    ?,
    ?,
    ?,
    ?,
    ?,
    now()
)] CODE[1146] MESSAGE[Table 'navit_subsidy.LOG_ADMIN' doesn't exist] [ERROR CODE(4)]
2016/07/10 11:00:02 Subsidy[14042](INFO): Subsidy_Cli_Action_BatchKillSessions.perform(/pb/Ethna/class/Ethna_Backend.php:364): killsessions: no list
2016/07/10 11:25:28 Subsidy[5806](INFO): Subsidy_Action_LogoutDo.prepare(/pb/Ethna/class/Ethna_Backend.php:357): [navitadmin2] view logout_do
2016/07/10 11:25:28 Subsidy[5806](ERR): Ethna_DB_ADOdb._query(/pb/Ethna/class/DB/Ethna_DB_ADOdb.php:173): エラー SQL[
insert into LOG_ADMIN(
    admin_id,
    action,
    app_id,
    target_id,
    message,
    created
) values (
    ?,
    ?,
    ?,
    ?,
    ?,
    now()
)] CODE[1146] MESSAGE[Table 'navit_subsidy.LOG_ADMIN' doesn't exist] [ERROR CODE(4)]
2016/07/10 11:30:02 Subsidy[13601](INFO): Subsidy_Cli_Action_BatchKillSessions.perform(/pb/Ethna/class/Ethna_Backend.php:364): killsessions: no list
2016/07/10 11:43:37 Subsidy[10325](INFO): Subsidy_Action_Login.perform(/pb/Ethna/class/Ethna_Backend.php:364): [] Subsidy_Action_Login!!
2016/07/10 11:43:39 Subsidy[10325](INFO): Subsidy_Action_Login.perform(/pb/Ethna/class/Ethna_Backend.php:364): [] Subsidy_Action_Login!!
2016/07/10 11:43:43 Subsidy[10348](INFO): Subsidy_Action_Login.perform(/pb/Ethna/class/Ethna_Backend.php:364): [] Subsidy_Action_Login!!
2016/07/10 11:43:54 Subsidy[10325](INFO): Subsidy_Action_LoginDo.prepare(/pb/Ethna/class/Ethna_Backend.php:357): [] view login_do
2016/07/10 11:43:54 Subsidy[10325](INFO): Subsidy_Authentication.auth(/app/action/Login/Do.php:121): login ->navitadmin(ナビット 管理者)
2016/07/10 11:43:54 Subsidy[10325](ERR): Ethna_DB_ADOdb._query(/pb/Ethna/class/DB/Ethna_DB_ADOdb.php:173): エラー SQL[
insert into LOG_ADMIN(
    admin_id,
    action,
    app_id,
    target_id,
    message,
    created
) values (
    ?,
    ?,
    ?,
    ?,
    ?,
    now()
)] CODE[1146] MESSAGE[Table 'navit_subsidy.LOG_ADMIN' doesn't exist] [ERROR CODE(4)]
2016/07/10 11:43:59 Subsidy[10325](INFO): Subsidy_Action_Login.perform(/pb/Ethna/class/Ethna_Backend.php:364): [] Subsidy_Action_Login!!
2016/07/10 11:44:12 Subsidy[10325](INFO): Subsidy_Action_LoginDo.prepare(/pb/Ethna/class/Ethna_Backend.php:357): [] view login_do
2016/07/10 11:44:12 Subsidy[10325](INFO): Subsidy_Authentication.auth(/app/action/Login/Do.php:121): login ->navitadmin2(ナビット 管理者)
2016/07/10 11:44:12 Subsidy[10325](ERR): Ethna_DB_ADOdb._query(/pb/Ethna/class/DB/Ethna_DB_ADOdb.php:173): エラー SQL[
insert into LOG_ADMIN(
    admin_id,
    action,
    app_id,
    target_id,
    message,
    created
) values (
    ?,
    ?,
    ?,
    ?,
    ?,
    now()
)] CODE[1146] MESSAGE[Table 'navit_subsidy.LOG_ADMIN' doesn't exist] [ERROR CODE(4)]
2016/07/10 12:00:02 Subsidy[10892](INFO): Subsidy_Cli_Action_BatchKillSessions.perform(/pb/Ethna/class/Ethna_Backend.php:364): killsessions: no list
2016/07/10 12:21:50 Subsidy[23664](INFO): Subsidy_Action_SecureRegistration.prepare(/pb/Ethna/class/Ethna_Backend.php:357): [] Subsidy_Action_SecureRegistration prepare()
2016/07/10 12:21:50 Subsidy[23664](INFO): Subsidy_Action_SecureRegistration.perform(/pb/Ethna/class/Ethna_Backend.php:364): [] Subsidy_Action_SecureRegistration perform()
2016/07/10 12:30:02 Subsidy[8709](INFO): Subsidy_Cli_Action_BatchKillSessions.perform(/pb/Ethna/class/Ethna_Backend.php:364): Kill User session : 040817396a97afafd8b25eb983b2bb014c7ad11099c6e9c53634173c47e252f0 User ID : navitadmin
2016/07/10 12:30:02 Subsidy[8709](INFO): Subsidy_Cli_Action_BatchKillSessions.perform(/pb/Ethna/class/Ethna_Backend.php:364): Kill User session : bed855c08204c4cacfd8e81c279c1184f50a98efad3a97578ae2edff43b0d10c User ID : navitadmin2
2016/07/10 12:30:54 Subsidy[11680](INFO): Subsidy_Action_Login.perform(/pb/Ethna/class/Ethna_Backend.php:364): [] Subsidy_Action_Login!!
2016/07/10 12:39:48 Subsidy[11680](INFO): Subsidy_Action_SecureRegistration.prepare(/pb/Ethna/class/Ethna_Backend.php:357): [] Subsidy_Action_SecureRegistration prepare()
2016/07/10 12:39:48 Subsidy[11680](INFO): Subsidy_Action_SecureRegistration.perform(/pb/Ethna/class/Ethna_Backend.php:364): [] Subsidy_Action_SecureRegistration perform()
2016/07/10 12:39:49 Subsidy[11680](INFO): Subsidy_Action_SecureRegistration.prepare(/pb/Ethna/class/Ethna_Backend.php:357): [] Subsidy_Action_SecureRegistration prepare()
2016/07/10 12:39:49 Subsidy[11680](INFO): Subsidy_Action_SecureRegistration.perform(/pb/Ethna/class/Ethna_Backend.php:364): [] Subsidy_Action_SecureRegistration perform()
2016/07/10 12:46:04 Subsidy[8697](INFO): Subsidy_Action_SecureRegistration.prepare(/pb/Ethna/class/Ethna_Backend.php:357): [] Subsidy_Action_SecureRegistration prepare()
2016/07/10 12:46:04 Subsidy[8697](INFO): Subsidy_Action_SecureRegistration.perform(/pb/Ethna/class/Ethna_Backend.php:364): [] Subsidy_Action_SecureRegistration perform()
2016/07/10 13:00:01 Subsidy[2370](INFO): Subsidy_Cli_Action_BatchKillSessions.perform(/pb/Ethna/class/Ethna_Backend.php:364): killsessions: no list
2016/07/10 13:30:02 Subsidy[30990](INFO): Subsidy_Cli_Action_BatchKillSessions.perform(/pb/Ethna/class/Ethna_Backend.php:364): killsessions: no list
2016/07/10 13:32:03 Subsidy[3392](INFO): Subsidy_Action_Login.perform(/pb/Ethna/class/Ethna_Backend.php:364): [] Subsidy_Action_Login!!
2016/07/10 13:32:04 Subsidy[3392](INFO): Subsidy_Action_Login.perform(/pb/Ethna/class/Ethna_Backend.php:364): [] Subsidy_Action_Login!!
2016/07/10 13:32:11 Subsidy[3392](INFO): Subsidy_Action_LoginDo.prepare(/pb/Ethna/class/Ethna_Backend.php:357): [] view login_do
2016/07/10 13:32:11 Subsidy[3392](INFO): Subsidy_Authentication.auth(/app/action/Login/Do.php:121): login ->navitadmin(ナビット 管理者)
2016/07/10 13:32:11 Subsidy[3392](ERR): Ethna_DB_ADOdb._query(/pb/Ethna/class/DB/Ethna_DB_ADOdb.php:173): エラー SQL[
insert into LOG_ADMIN(
    admin_id,
    action,
    app_id,
    target_id,
    message,
    created
) values (
    ?,
    ?,
    ?,
    ?,
    ?,
    now()
)] CODE[1146] MESSAGE[Table 'navit_subsidy.LOG_ADMIN' doesn't exist] [ERROR CODE(4)]
2016/07/10 13:33:07 Subsidy[3392](INFO): Subsidy_Action_Completewithdrew.prepare(/pb/Ethna/class/Ethna_Backend.php:357): [navitadmin2] Subsidy_Action_Completewithdrew prepare()
2016/07/10 13:33:09 Subsidy[3392](INFO): Subsidy_Action_Completewithdrew.perform(/pb/Ethna/class/Ethna_Backend.php:364): [navitadmin2] Subsidy_Mail::mailsender[MAIL SEND OK] TO:<info@joseikin-now.com>
2016/07/10 13:33:10 Subsidy[3392](INFO): Subsidy_Action_Completewithdrew.perform(/pb/Ethna/class/Ethna_Backend.php:364): [] Subsidy_Action_Completewithdrew perform()
2016/07/10 13:34:30 Subsidy[3392](INFO): Subsidy_Action_Login.perform(/pb/Ethna/class/Ethna_Backend.php:364): [] Subsidy_Action_Login!!
2016/07/10 13:34:39 Subsidy[3392](INFO): Subsidy_Action_LoginDo.prepare(/pb/Ethna/class/Ethna_Backend.php:357): [] view login_do
2016/07/10 13:34:39 Subsidy[3392](NOTICE): Subsidy_Authentication.auth(/app/action/Login/Do.php:121): ログインIDまたはパスワードが間違っています [ERROR CODE(-128)]
2016/07/10 13:34:39 Subsidy[3392](NOTICE): Subsidy_Action_LoginDo.perform(/pb/Ethna/class/Ethna_Backend.php:364): {form} -> []
2016/07/10 13:34:50 Subsidy[3392](INFO): Subsidy_Action_LoginDo.prepare(/pb/Ethna/class/Ethna_Backend.php:357): [] view login_do
2016/07/10 13:34:50 Subsidy[3392](INFO): Subsidy_Authentication.auth(/app/action/Login/Do.php:121): login ->navitadmin3(ナビット 管理者)
2016/07/10 13:34:50 Subsidy[3392](ERR): Ethna_DB_ADOdb._query(/pb/Ethna/class/DB/Ethna_DB_ADOdb.php:173): エラー SQL[
insert into LOG_ADMIN(
    admin_id,
    action,
    app_id,
    target_id,
    message,
    created
) values (
    ?,
    ?,
    ?,
    ?,
    ?,
    now()
)] CODE[1146] MESSAGE[Table 'navit_subsidy.LOG_ADMIN' doesn't exist] [ERROR CODE(4)]
2016/07/10 13:34:53 Subsidy[3392](INFO): Subsidy_Action_LogoutDo.prepare(/pb/Ethna/class/Ethna_Backend.php:357): [navitadmin3] view logout_do
2016/07/10 13:34:53 Subsidy[3392](ERR): Ethna_DB_ADOdb._query(/pb/Ethna/class/DB/Ethna_DB_ADOdb.php:173): エラー SQL[
insert into LOG_ADMIN(
    admin_id,
    action,
    app_id,
    target_id,
    message,
    created
) values (
    ?,
    ?,
    ?,
    ?,
    ?,
    now()
)] CODE[1146] MESSAGE[Table 'navit_subsidy.LOG_ADMIN' doesn't exist] [ERROR CODE(4)]
2016/07/10 13:34:55 Subsidy[3392](INFO): Subsidy_Action_Login.perform(/pb/Ethna/class/Ethna_Backend.php:364): [] Subsidy_Action_Login!!
2016/07/10 13:35:09 Subsidy[3392](INFO): Subsidy_Action_LoginDo.prepare(/pb/Ethna/class/Ethna_Backend.php:357): [] view login_do
2016/07/10 13:35:09 Subsidy[3392](NOTICE): Subsidy_Authentication.auth(/app/action/Login/Do.php:121): ログインIDまたはパスワードが間違っています [ERROR CODE(-128)]
2016/07/10 13:35:09 Subsidy[3392](NOTICE): Subsidy_Action_LoginDo.perform(/pb/Ethna/class/Ethna_Backend.php:364): {form} -> []
2016/07/10 13:35:48 Subsidy[3392](INFO): Subsidy_Action_LoginDo.prepare(/pb/Ethna/class/Ethna_Backend.php:357): [] view login_do
2016/07/10 13:35:48 Subsidy[3392](INFO): Subsidy_Authentication.auth(/app/action/Login/Do.php:121): login ->maeda(前田 啓佑)
2016/07/10 13:35:48 Subsidy[3392](ERR): Ethna_DB_ADOdb._query(/pb/Ethna/class/DB/Ethna_DB_ADOdb.php:173): エラー SQL[
insert into LOG_ADMIN(
    admin_id,
    action,
    app_id,
    target_id,
    message,
    created
) values (
    ?,
    ?,
    ?,
    ?,
    ?,
    now()
)] CODE[1146] MESSAGE[Table 'navit_subsidy.LOG_ADMIN' doesn't exist] [ERROR CODE(4)]
2016/07/10 13:36:24 Subsidy[3392](INFO): Subsidy_Action_LogoutDo.prepare(/pb/Ethna/class/Ethna_Backend.php:357): [maeda] view logout_do
2016/07/10 13:36:24 Subsidy[3392](ERR): Ethna_DB_ADOdb._query(/pb/Ethna/class/DB/Ethna_DB_ADOdb.php:173): エラー SQL[
insert into LOG_ADMIN(
    admin_id,
    action,
    app_id,
    target_id,
    message,
    created
) values (
    ?,
    ?,
    ?,
    ?,
    ?,
    now()
)] CODE[1146] MESSAGE[Table 'navit_subsidy.LOG_ADMIN' doesn't exist] [ERROR CODE(4)]
2016/07/10 14:00:03 Subsidy[26243](INFO): Subsidy_Cli_Action_BatchKillSessions.perform(/pb/Ethna/class/Ethna_Backend.php:364): killsessions: no list
2016/07/10 14:13:49 Subsidy[10296](INFO): Subsidy_Action_SecureRegistration.prepare(/pb/Ethna/class/Ethna_Backend.php:357): [] Subsidy_Action_SecureRegistration prepare()
2016/07/10 14:13:49 Subsidy[10296](INFO): Subsidy_Action_SecureRegistration.perform(/pb/Ethna/class/Ethna_Backend.php:364): [] Subsidy_Action_SecureRegistration perform()
2016/07/10 14:13:50 Subsidy[10296](INFO): Subsidy_Action_SecureRegistration.prepare(/pb/Ethna/class/Ethna_Backend.php:357): [] Subsidy_Action_SecureRegistration prepare()
2016/07/10 14:13:50 Subsidy[10296](INFO): Subsidy_Action_SecureRegistration.perform(/pb/Ethna/class/Ethna_Backend.php:364): [] Subsidy_Action_SecureRegistration perform()
2016/07/10 14:17:45 Subsidy[28665](INFO): Subsidy_Action_SecureConfirm.prepare(/pb/Ethna/class/Ethna_Backend.php:357): [] Subsidy_Action_SecureConfirm prepare()
2016/07/10 14:17:45 Subsidy[28665](INFO): Subsidy_Action_SecureConfirm.perform(/pb/Ethna/class/Ethna_Backend.php:364): [] Subsidy_Action_SecureConfirm perform()
2016/07/10 14:17:45 Subsidy[28665](INFO): Subsidy_View_SecureConfirm.preforward(/pb/Ethna/class/Ethna_Controller.php:975): [] Subsidy_View_SecureConfirm preforward()
2016/07/10 14:17:51 Subsidy[28665](INFO): Subsidy_Action_SecureComplete.prepare(/pb/Ethna/class/Ethna_Backend.php:357): [] Subsidy_Action_SecureComplete prepare()
2016/07/10 14:17:52 Subsidy[28665](INFO): Subsidy_Action_SecureComplete.perform(/pb/Ethna/class/Ethna_Backend.php:364): [] Subsidy_Mail::mailsender[MAIL SEND OK] TO:<info@herb-rose.com>
2016/07/10 14:17:53 Subsidy[28665](INFO): Subsidy_Action_SecureComplete.perform(/pb/Ethna/class/Ethna_Backend.php:364): [] Subsidy_Action_SecureComplete perform()
2016/07/10 14:17:53 Subsidy[28665](INFO): Subsidy_View_SecureComplete.preforward(/pb/Ethna/class/Ethna_Controller.php:975): [] Subsidy_View_SecureComplete preforward()
2016/07/10 14:18:13 Subsidy[30645](INFO): Subsidy_Action_Login.perform(/pb/Ethna/class/Ethna_Backend.php:364): [] Subsidy_Action_Login!!
2016/07/10 14:18:13 Subsidy[30645](INFO): Subsidy_Action_Login.perform(/pb/Ethna/class/Ethna_Backend.php:364): [] Subsidy_Action_Login!!
2016/07/10 14:18:45 Subsidy[28665](INFO): Subsidy_Action_LoginDo.prepare(/pb/Ethna/class/Ethna_Backend.php:357): [] view login_do
2016/07/10 14:18:45 Subsidy[28665](INFO): Subsidy_Authentication.auth(/app/action/Login/Do.php:121): login ->7rP61468127872(作取 久男)
2016/07/10 14:18:45 Subsidy[28665](ERR): Ethna_DB_ADOdb._query(/pb/Ethna/class/DB/Ethna_DB_ADOdb.php:173): エラー SQL[
insert into LOG_ADMIN(
    admin_id,
    action,
    app_id,
    target_id,
    message,
    created
) values (
    ?,
    ?,
    ?,
    ?,
    ?,
    now()
)] CODE[1146] MESSAGE[Table 'navit_subsidy.LOG_ADMIN' doesn't exist] [ERROR CODE(4)]
2016/07/10 14:30:02 Subsidy[21524](INFO): Subsidy_Cli_Action_BatchKillSessions.perform(/pb/Ethna/class/Ethna_Backend.php:364): Kill User session : 347003fba8aad5580306d0283ca2c8633dd98db9b48a91891ae92f7257666d46 User ID : navitadmin
2016/07/10 14:50:13 Subsidy[18655](INFO): Subsidy_Action_Login.perform(/pb/Ethna/class/Ethna_Backend.php:364): [] Subsidy_Action_Login!!
2016/07/10 14:51:38 Subsidy[2637](INFO): Subsidy_Action_Login.perform(/pb/Ethna/class/Ethna_Backend.php:364): [] Subsidy_Action_Login!!
2016/07/10 14:51:38 Subsidy[2637](INFO): Subsidy_Action_Login.perform(/pb/Ethna/class/Ethna_Backend.php:364): [] Subsidy_Action_Login!!
2016/07/10 14:51:46 Subsidy[18655](INFO): Subsidy_Action_LoginDo.prepare(/pb/Ethna/class/Ethna_Backend.php:357): [] view login_do
2016/07/10 14:51:46 Subsidy[18655](INFO): Subsidy_Authentication.auth(/app/action/Login/Do.php:121): login ->VY8v1438605893(佐藤　 昌)
2016/07/10 14:51:46 Subsidy[18655](ERR): Ethna_DB_ADOdb._query(/pb/Ethna/class/DB/Ethna_DB_ADOdb.php:173): エラー SQL[
insert into LOG_ADMIN(
    admin_id,
    action,
    app_id,
    target_id,
    message,
    created
) values (
    ?,
    ?,
    ?,
    ?,
    ?,
    now()
)] CODE[1146] MESSAGE[Table 'navit_subsidy.LOG_ADMIN' doesn't exist] [ERROR CODE(4)]
2016/07/10 14:58:29 Subsidy[2637](INFO): Subsidy_Action_Sendoffer.perform(/pb/Ethna/class/Ethna_Backend.php:364): 興味通知オファー送信[LOGIN_ID:navitadmin][案件種別:][コンテンツID:]------会員情報:
2016/07/10 14:58:48 Subsidy[18655](INFO): Subsidy_Action_Login.perform(/pb/Ethna/class/Ethna_Backend.php:364): [] Subsidy_Action_Login!!
2016/07/10 14:59:00 Subsidy[18655](INFO): Subsidy_Action_LoginDo.prepare(/pb/Ethna/class/Ethna_Backend.php:357): [] view login_do
2016/07/10 14:59:00 Subsidy[18655](INFO): Subsidy_Authentication.auth(/app/action/Login/Do.php:121): login ->maeda(前田 啓佑)
2016/07/10 14:59:01 Subsidy[18655](ERR): Ethna_DB_ADOdb._query(/pb/Ethna/class/DB/Ethna_DB_ADOdb.php:173): エラー SQL[
insert into LOG_ADMIN(
    admin_id,
    action,
    app_id,
    target_id,
    message,
    created
) values (
    ?,
    ?,
    ?,
    ?,
    ?,
    now()
)] CODE[1146] MESSAGE[Table 'navit_subsidy.LOG_ADMIN' doesn't exist] [ERROR CODE(4)]
2016/07/10 14:59:13 Subsidy[18655](INFO): Subsidy_Action_Sendoffer.perform(/pb/Ethna/class/Ethna_Backend.php:364): 興味通知オファー送信[LOGIN_ID:maeda][案件種別:][コンテンツID:]------会員情報:
2016/07/10 15:00:02 Subsidy[19222](INFO): Subsidy_Cli_Action_BatchKillSessions.perform(/pb/Ethna/class/Ethna_Backend.php:364): Kill User session : 0969732b933818f9a432d244e8de2a5e0f353436a9375d9e28ea48d304166b74 User ID : 7rP61468127872
2016/07/10 15:04:40 Subsidy[2637](INFO): Subsidy_Action_SecureRegistration.prepare(/pb/Ethna/class/Ethna_Backend.php:357): [] Subsidy_Action_SecureRegistration prepare()
2016/07/10 15:04:40 Subsidy[2637](INFO): Subsidy_Action_SecureRegistration.perform(/pb/Ethna/class/Ethna_Backend.php:364): [] Subsidy_Action_SecureRegistration perform()
2016/07/10 15:06:21 Subsidy[2637](INFO): Subsidy_Action_Sendoffer.perform(/pb/Ethna/class/Ethna_Backend.php:364): 興味通知オファー送信[LOGIN_ID:maeda][案件種別:][コンテンツID:]------会員情報:
2016/07/10 15:17:22 Subsidy[18655](INFO): Subsidy_Action_SecureConfirm.prepare(/pb/Ethna/class/Ethna_Backend.php:357): [] Subsidy_Action_SecureConfirm prepare()
2016/07/10 15:17:22 Subsidy[18655](INFO): Subsidy_Action_SecureConfirm.perform(/pb/Ethna/class/Ethna_Backend.php:364): [] Subsidy_Action_SecureConfirm perform()
2016/07/10 15:17:22 Subsidy[18655](INFO): Subsidy_View_SecureConfirm.preforward(/pb/Ethna/class/Ethna_Controller.php:975): [] Subsidy_View_SecureConfirm preforward()
2016/07/10 15:17:27 Subsidy[18655](INFO): Subsidy_Action_SecureComplete.prepare(/pb/Ethna/class/Ethna_Backend.php:357): [] Subsidy_Action_SecureComplete prepare()
2016/07/10 15:17:28 Subsidy[2637](INFO): Subsidy_Action_SecureComplete.prepare(/pb/Ethna/class/Ethna_Backend.php:357): [] Subsidy_Action_SecureComplete prepare()
2016/07/10 15:17:28 Subsidy[2637](NOTICE): Subsidy_Action_SecureComplete.perform(/pb/Ethna/class/Ethna_Backend.php:364): 既に登録済みのメールアドレスです [ERROR CODE(147)]
2016/07/10 15:17:28 Subsidy[2637](NOTICE): Subsidy_Action_SecureComplete.perform(/pb/Ethna/class/Ethna_Backend.php:364): {form} -> [メールアドレス]
2016/07/10 15:17:28 Subsidy[18655](INFO): Subsidy_Action_SecureComplete.perform(/pb/Ethna/class/Ethna_Backend.php:364): [] Subsidy_Mail::mailsender[MAIL SEND OK] TO:<rie0809@gmail.com>
2016/07/10 15:17:29 Subsidy[18655](INFO): Subsidy_Action_SecureComplete.perform(/pb/Ethna/class/Ethna_Backend.php:364): [] Subsidy_Action_SecureComplete perform()
2016/07/10 15:17:29 Subsidy[18655](INFO): Subsidy_View_SecureComplete.preforward(/pb/Ethna/class/Ethna_Controller.php:975): [] Subsidy_View_SecureComplete preforward()
2016/07/10 15:18:10 Subsidy[4166](INFO): Subsidy_Action_SecureRegistration.prepare(/pb/Ethna/class/Ethna_Backend.php:357): [] Subsidy_Action_SecureRegistration prepare()
2016/07/10 15:18:10 Subsidy[4166](INFO): Subsidy_Action_SecureRegistration.perform(/pb/Ethna/class/Ethna_Backend.php:364): [] Subsidy_Action_SecureRegistration perform()
2016/07/10 15:18:11 Subsidy[4166](INFO): Subsidy_Action_SecureRegistration.prepare(/pb/Ethna/class/Ethna_Backend.php:357): [] Subsidy_Action_SecureRegistration prepare()
2016/07/10 15:18:11 Subsidy[4166](INFO): Subsidy_Action_SecureRegistration.perform(/pb/Ethna/class/Ethna_Backend.php:364): [] Subsidy_Action_SecureRegistration perform()
2016/07/10 15:24:38 Subsidy[2637](INFO): Subsidy_Action_Login.perform(/pb/Ethna/class/Ethna_Backend.php:364): [] Subsidy_Action_Login!!
2016/07/10 15:24:39 Subsidy[2637](INFO): Subsidy_Action_Login.perform(/pb/Ethna/class/Ethna_Backend.php:364): [] Subsidy_Action_Login!!
2016/07/10 15:27:14 Subsidy[2637](INFO): Subsidy_Action_LoginDo.prepare(/pb/Ethna/class/Ethna_Backend.php:357): [] view login_do
2016/07/10 15:27:14 Subsidy[2637](INFO): Subsidy_Authentication.auth(/app/action/Login/Do.php:121): login ->r9gB1466056674(李 昌燮)
2016/07/10 15:27:14 Subsidy[2637](ERR): Ethna_DB_ADOdb._query(/pb/Ethna/class/DB/Ethna_DB_ADOdb.php:173): エラー SQL[
insert into LOG_ADMIN(
    admin_id,
    action,
    app_id,
    target_id,
    message,
    created
) values (
    ?,
    ?,
    ?,
    ?,
    ?,
    now()
)] CODE[1146] MESSAGE[Table 'navit_subsidy.LOG_ADMIN' doesn't exist] [ERROR CODE(4)]
2016/07/10 15:30:02 Subsidy[22306](INFO): Subsidy_Cli_Action_BatchKillSessions.perform(/pb/Ethna/class/Ethna_Backend.php:364): Kill User session : 3a9cccba7a9baa1a75b5222f2ef13745b9b1443f03e5180d47d152454dfce03e User ID : VY8v1438605893
2016/07/10 15:30:02 Subsidy[22306](INFO): Subsidy_Cli_Action_BatchKillSessions.perform(/pb/Ethna/class/Ethna_Backend.php:364): Kill User session : fbb34a7cb1b7ca0a2cb0e0e62bd81d2e1fe0326d53130199a7ccfacede5e34b2 User ID : maeda
2016/07/10 15:30:49 Subsidy[20065](INFO): Subsidy_Action_SecureRegistration.prepare(/pb/Ethna/class/Ethna_Backend.php:357): [] Subsidy_Action_SecureRegistration prepare()
2016/07/10 15:30:49 Subsidy[20065](INFO): Subsidy_Action_SecureRegistration.perform(/pb/Ethna/class/Ethna_Backend.php:364): [] Subsidy_Action_SecureRegistration perform()
2016/07/10 15:55:30 Subsidy[4404](INFO): Subsidy_Action_SecureRegistration.prepare(/pb/Ethna/class/Ethna_Backend.php:357): [] Subsidy_Action_SecureRegistration prepare()
2016/07/10 15:55:30 Subsidy[4404](INFO): Subsidy_Action_SecureRegistration.perform(/pb/Ethna/class/Ethna_Backend.php:364): [] Subsidy_Action_SecureRegistration perform()
2016/07/10 15:55:32 Subsidy[4404](INFO): Subsidy_Action_SecureRegistration.prepare(/pb/Ethna/class/Ethna_Backend.php:357): [] Subsidy_Action_SecureRegistration prepare()
2016/07/10 15:55:32 Subsidy[4404](INFO): Subsidy_Action_SecureRegistration.perform(/pb/Ethna/class/Ethna_Backend.php:364): [] Subsidy_Action_SecureRegistration perform()
2016/07/10 16:00:02 Subsidy[18570](INFO): Subsidy_Cli_Action_BatchKillSessions.perform(/pb/Ethna/class/Ethna_Backend.php:364): Kill User session : f8a6d418aefc827a48c935a6a0f8c7b416b7dae35887858c4552f4343788abc4 User ID : r9gB1466056674
2016/07/10 16:10:02 Subsidy[4404](INFO): Subsidy_Action_Sendoffer.perform(/pb/Ethna/class/Ethna_Backend.php:364): 興味通知オファー送信[LOGIN_ID:r9gB1466056674][案件種別:][コンテンツID:]------会員情報:
2016/07/10 16:19:26 Subsidy[18076](INFO): Subsidy_Action_SecureConfirm.prepare(/pb/Ethna/class/Ethna_Backend.php:357): [] Subsidy_Action_SecureConfirm prepare()
2016/07/10 16:19:26 Subsidy[18076](INFO): Subsidy_Action_SecureConfirm.perform(/pb/Ethna/class/Ethna_Backend.php:364): [] Subsidy_Action_SecureConfirm perform()
2016/07/10 16:19:26 Subsidy[18076](INFO): Subsidy_View_SecureConfirm.preforward(/pb/Ethna/class/Ethna_Controller.php:975): [] Subsidy_View_SecureConfirm preforward()
2016/07/10 16:19:29 Subsidy[18076](INFO): Subsidy_Action_SecureComplete.prepare(/pb/Ethna/class/Ethna_Backend.php:357): [] Subsidy_Action_SecureComplete prepare()
2016/07/10 16:19:31 Subsidy[18076](INFO): Subsidy_Action_SecureComplete.perform(/pb/Ethna/class/Ethna_Backend.php:364): [] Subsidy_Mail::mailsender[MAIL SEND OK] TO:<okamoto@id-f.com>
2016/07/10 16:19:32 Subsidy[18076](INFO): Subsidy_Action_SecureComplete.perform(/pb/Ethna/class/Ethna_Backend.php:364): [] Subsidy_Action_SecureComplete perform()
2016/07/10 16:19:32 Subsidy[18076](INFO): Subsidy_View_SecureComplete.preforward(/pb/Ethna/class/Ethna_Controller.php:975): [] Subsidy_View_SecureComplete preforward()
2016/07/10 16:20:47 Subsidy[18076](INFO): Subsidy_Action_Login.perform(/pb/Ethna/class/Ethna_Backend.php:364): [] Subsidy_Action_Login!!
2016/07/10 16:20:48 Subsidy[18076](INFO): Subsidy_Action_Login.perform(/pb/Ethna/class/Ethna_Backend.php:364): [] Subsidy_Action_Login!!
2016/07/10 16:21:12 Subsidy[18076](INFO): Subsidy_Action_LoginDo.prepare(/pb/Ethna/class/Ethna_Backend.php:357): [] view login_do
2016/07/10 16:21:12 Subsidy[18076](INFO): Subsidy_Authentication.auth(/app/action/Login/Do.php:121): login ->3Akh1468135170(岡元 誠)
2016/07/10 16:21:12 Subsidy[18076](ERR): Ethna_DB_ADOdb._query(/pb/Ethna/class/DB/Ethna_DB_ADOdb.php:173): エラー SQL[
insert into LOG_ADMIN(
    admin_id,
    action,
    app_id,
    target_id,
    message,
    created
) values (
    ?,
    ?,
    ?,
    ?,
    ?,
    now()
)] CODE[1146] MESSAGE[Table 'navit_subsidy.LOG_ADMIN' doesn't exist] [ERROR CODE(4)]
2016/07/10 16:28:48 Subsidy[18076](INFO): Subsidy_Action_SecureRegistration.prepare(/pb/Ethna/class/Ethna_Backend.php:357): [] Subsidy_Action_SecureRegistration prepare()
2016/07/10 16:28:48 Subsidy[18076](INFO): Subsidy_Action_SecureRegistration.perform(/pb/Ethna/class/Ethna_Backend.php:364): [] Subsidy_Action_SecureRegistration perform()
2016/07/10 16:30:02 Subsidy[20159](INFO): Subsidy_Cli_Action_BatchKillSessions.perform(/pb/Ethna/class/Ethna_Backend.php:364): killsessions: no list
2016/07/10 16:40:03 Subsidy[7427](INFO): Subsidy_Action_Login.perform(/pb/Ethna/class/Ethna_Backend.php:364): [] Subsidy_Action_Login!!
2016/07/10 16:40:16 Subsidy[18076](INFO): Subsidy_Action_LoginDo.prepare(/pb/Ethna/class/Ethna_Backend.php:357): [] view login_do
2016/07/10 16:40:16 Subsidy[18076](INFO): Subsidy_Authentication.auth(/app/action/Login/Do.php:121): login ->maeda(前田 啓佑)
2016/07/10 16:40:16 Subsidy[18076](ERR): Ethna_DB_ADOdb._query(/pb/Ethna/class/DB/Ethna_DB_ADOdb.php:173): エラー SQL[
insert into LOG_ADMIN(
    admin_id,
    action,
    app_id,
    target_id,
    message,
    created
) values (
    ?,
    ?,
    ?,
    ?,
    ?,
    now()
)] CODE[1146] MESSAGE[Table 'navit_subsidy.LOG_ADMIN' doesn't exist] [ERROR CODE(4)]
2016/07/10 16:43:53 Subsidy[7427](INFO): Subsidy_Action_SecureRegistration.prepare(/pb/Ethna/class/Ethna_Backend.php:357): [] Subsidy_Action_SecureRegistration prepare()
2016/07/10 16:43:53 Subsidy[7427](INFO): Subsidy_Action_SecureRegistration.perform(/pb/Ethna/class/Ethna_Backend.php:364): [] Subsidy_Action_SecureRegistration perform()
2016/07/10 17:00:01 Subsidy[19785](INFO): Subsidy_Cli_Action_BatchKillSessions.perform(/pb/Ethna/class/Ethna_Backend.php:364): Kill User session : 88607f1ab8a5dc66f9cfd85fbcb2c52d197b255b90a1e938853460ffdcd1d66d User ID : 3Akh1468135170
2016/07/10 17:03:33 Subsidy[7427](INFO): Subsidy_Action_Login.perform(/pb/Ethna/class/Ethna_Backend.php:364): [r9gB1466056674] Subsidy_Action_Login!!
2016/07/10 17:03:39 Subsidy[7427](INFO): Subsidy_Action_Login.perform(/pb/Ethna/class/Ethna_Backend.php:364): [r9gB1466056674] Subsidy_Action_Login!!
2016/07/10 17:03:42 Subsidy[7427](INFO): Subsidy_Action_Login.perform(/pb/Ethna/class/Ethna_Backend.php:364): [r9gB1466056674] Subsidy_Action_Login!!
2016/07/10 17:04:05 Subsidy[7427](INFO): Subsidy_Action_LoginDo.prepare(/pb/Ethna/class/Ethna_Backend.php:357): [r9gB1466056674] view login_do
2016/07/10 17:04:05 Subsidy[7427](NOTICE): Subsidy_Authentication.auth(/app/action/Login/Do.php:121): 文字認証が間違っています [ERROR CODE(-128)]
2016/07/10 17:04:05 Subsidy[7427](NOTICE): Subsidy_Action_LoginDo.perform(/pb/Ethna/class/Ethna_Backend.php:364): {form} -> []
2016/07/10 17:04:11 Subsidy[7427](INFO): Subsidy_Action_Login.perform(/pb/Ethna/class/Ethna_Backend.php:364): [r9gB1466056674] Subsidy_Action_Login!!
2016/07/10 17:04:31 Subsidy[7427](INFO): Subsidy_Action_LoginDo.prepare(/pb/Ethna/class/Ethna_Backend.php:357): [r9gB1466056674] view login_do
2016/07/10 17:04:31 Subsidy[7427](INFO): Subsidy_Authentication.auth(/app/action/Login/Do.php:121): login ->r9gB1466056674(李 昌燮)
2016/07/10 17:04:31 Subsidy[7427](ERR): Ethna_DB_ADOdb._query(/pb/Ethna/class/DB/Ethna_DB_ADOdb.php:173): エラー SQL[
insert into LOG_ADMIN(
    admin_id,
    action,
    app_id,
    target_id,
    message,
    created
) values (
    ?,
    ?,
    ?,
    ?,
    ?,
    now()
)] CODE[1146] MESSAGE[Table 'navit_subsidy.LOG_ADMIN' doesn't exist] [ERROR CODE(4)]
2016/07/10 17:08:58 Subsidy[7427](INFO): Subsidy_Action_Login.perform(/pb/Ethna/class/Ethna_Backend.php:364): [r9gB1466056674] Subsidy_Action_Login!!
2016/07/10 17:08:59 Subsidy[7427](INFO): Subsidy_Action_Login.perform(/pb/Ethna/class/Ethna_Backend.php:364): [r9gB1466056674] Subsidy_Action_Login!!
2016/07/10 17:22:59 Subsidy[7427](INFO): Subsidy_Action_SecureRegistration.prepare(/pb/Ethna/class/Ethna_Backend.php:357): [] Subsidy_Action_SecureRegistration prepare()
2016/07/10 17:22:59 Subsidy[7427](INFO): Subsidy_Action_SecureRegistration.perform(/pb/Ethna/class/Ethna_Backend.php:364): [] Subsidy_Action_SecureRegistration perform()
2016/07/10 17:23:03 Subsidy[7427](INFO): Subsidy_Action_SecureRegistration.prepare(/pb/Ethna/class/Ethna_Backend.php:357): [] Subsidy_Action_SecureRegistration prepare()
2016/07/10 17:23:03 Subsidy[7427](INFO): Subsidy_Action_SecureRegistration.perform(/pb/Ethna/class/Ethna_Backend.php:364): [] Subsidy_Action_SecureRegistration perform()
2016/07/10 17:28:42 Subsidy[7427](INFO): Subsidy_Action_SecureRegistration.prepare(/pb/Ethna/class/Ethna_Backend.php:357): [] Subsidy_Action_SecureRegistration prepare()
2016/07/10 17:28:42 Subsidy[7427](INFO): Subsidy_Action_SecureRegistration.perform(/pb/Ethna/class/Ethna_Backend.php:364): [] Subsidy_Action_SecureRegistration perform()
2016/07/10 17:28:46 Subsidy[7427](INFO): Subsidy_Action_SecureRegistration.prepare(/pb/Ethna/class/Ethna_Backend.php:357): [] Subsidy_Action_SecureRegistration prepare()
2016/07/10 17:28:46 Subsidy[7427](INFO): Subsidy_Action_SecureRegistration.perform(/pb/Ethna/class/Ethna_Backend.php:364): [] Subsidy_Action_SecureRegistration perform()
2016/07/10 17:30:02 Subsidy[17677](INFO): Subsidy_Cli_Action_BatchKillSessions.perform(/pb/Ethna/class/Ethna_Backend.php:364): Kill User session : 91c490f3a5c8d357d7762411d600192a2398ae591a0dfb7ffa62150adead396c User ID : maeda
2016/07/10 17:34:51 Subsidy[27856](INFO): Subsidy_Action_SecureRegistration.prepare(/pb/Ethna/class/Ethna_Backend.php:357): [] Subsidy_Action_SecureRegistration prepare()
2016/07/10 17:34:51 Subsidy[27856](INFO): Subsidy_Action_SecureRegistration.perform(/pb/Ethna/class/Ethna_Backend.php:364): [] Subsidy_Action_SecureRegistration perform()
2016/07/10 17:49:13 Subsidy[24146](INFO): Subsidy_Action_SecureRegistration.prepare(/pb/Ethna/class/Ethna_Backend.php:357): [] Subsidy_Action_SecureRegistration prepare()
2016/07/10 17:49:13 Subsidy[24146](INFO): Subsidy_Action_SecureRegistration.perform(/pb/Ethna/class/Ethna_Backend.php:364): [] Subsidy_Action_SecureRegistration perform()
2016/07/10 17:49:14 Subsidy[24146](INFO): Subsidy_Action_SecureRegistration.prepare(/pb/Ethna/class/Ethna_Backend.php:357): [] Subsidy_Action_SecureRegistration prepare()
2016/07/10 17:49:14 Subsidy[24146](INFO): Subsidy_Action_SecureRegistration.perform(/pb/Ethna/class/Ethna_Backend.php:364): [] Subsidy_Action_SecureRegistration perform()
2016/07/10 17:58:54 Subsidy[32180](INFO): Subsidy_Action_Login.perform(/pb/Ethna/class/Ethna_Backend.php:364): [] Subsidy_Action_Login!!
2016/07/10 18:00:02 Subsidy[16195](INFO): Subsidy_Cli_Action_BatchKillSessions.perform(/pb/Ethna/class/Ethna_Backend.php:364): Kill User session : f8a6d418aefc827a48c935a6a0f8c7b416b7dae35887858c4552f4343788abc4 User ID : r9gB1466056674
2016/07/10 18:07:58 Subsidy[24146](INFO): Subsidy_Action_SecureRegistration.prepare(/pb/Ethna/class/Ethna_Backend.php:357): [] Subsidy_Action_SecureRegistration prepare()
2016/07/10 18:07:58 Subsidy[24146](INFO): Subsidy_Action_SecureRegistration.perform(/pb/Ethna/class/Ethna_Backend.php:364): [] Subsidy_Action_SecureRegistration perform()
2016/07/10 18:07:59 Subsidy[24146](INFO): Subsidy_Action_SecureRegistration.prepare(/pb/Ethna/class/Ethna_Backend.php:357): [] Subsidy_Action_SecureRegistration prepare()
2016/07/10 18:07:59 Subsidy[24146](INFO): Subsidy_Action_SecureRegistration.perform(/pb/Ethna/class/Ethna_Backend.php:364): [] Subsidy_Action_SecureRegistration perform()
2016/07/10 18:08:02 Subsidy[24146](INFO): Subsidy_Action_Login.perform(/pb/Ethna/class/Ethna_Backend.php:364): [] Subsidy_Action_Login!!
2016/07/10 18:08:03 Subsidy[24146](INFO): Subsidy_Action_Login.perform(/pb/Ethna/class/Ethna_Backend.php:364): [] Subsidy_Action_Login!!
2016/07/10 18:08:47 Subsidy[24146](INFO): Subsidy_Action_LoginDo.prepare(/pb/Ethna/class/Ethna_Backend.php:357): [] view login_do
2016/07/10 18:08:47 Subsidy[24146](NOTICE): Subsidy_Authentication.auth(/app/action/Login/Do.php:121): ログインIDまたはパスワードが間違っています [ERROR CODE(-128)]
2016/07/10 18:08:47 Subsidy[24146](NOTICE): Subsidy_Action_LoginDo.perform(/pb/Ethna/class/Ethna_Backend.php:364): {form} -> []
2016/07/10 18:09:00 Subsidy[32180](INFO): Subsidy_Action_LoginDo.prepare(/pb/Ethna/class/Ethna_Backend.php:357): [] view login_do
2016/07/10 18:09:00 Subsidy[32180](NOTICE): Subsidy_Authentication.auth(/app/action/Login/Do.php:121): ログインIDまたはパスワードが間違っています [ERROR CODE(-128)]
2016/07/10 18:09:00 Subsidy[32180](NOTICE): Subsidy_Action_LoginDo.perform(/pb/Ethna/class/Ethna_Backend.php:364): {form} -> []
2016/07/10 18:13:11 Subsidy[3982](INFO): Subsidy_Action_SecureConfirm.prepare(/pb/Ethna/class/Ethna_Backend.php:357): [] Subsidy_Action_SecureConfirm prepare()
2016/07/10 18:13:11 Subsidy[3982](INFO): Subsidy_Action_SecureConfirm.perform(/pb/Ethna/class/Ethna_Backend.php:364): [] Subsidy_Action_SecureConfirm perform()
2016/07/10 18:13:11 Subsidy[3982](INFO): Subsidy_View_SecureConfirm.preforward(/pb/Ethna/class/Ethna_Controller.php:975): [] Subsidy_View_SecureConfirm preforward()
2016/07/10 18:14:00 Subsidy[3982](INFO): Subsidy_Action_Login.perform(/pb/Ethna/class/Ethna_Backend.php:364): [] Subsidy_Action_Login!!
2016/07/10 18:14:00 Subsidy[3982](INFO): Subsidy_Action_Login.perform(/pb/Ethna/class/Ethna_Backend.php:364): [] Subsidy_Action_Login!!
2016/07/10 18:14:26 Subsidy[24146](INFO): Subsidy_Action_LoginDo.prepare(/pb/Ethna/class/Ethna_Backend.php:357): [] view login_do
2016/07/10 18:14:26 Subsidy[24146](INFO): Subsidy_Authentication.auth(/app/action/Login/Do.php:121): login ->ebQ91465523182(岩田 力三)
2016/07/10 18:14:26 Subsidy[24146](ERR): Ethna_DB_ADOdb._query(/pb/Ethna/class/DB/Ethna_DB_ADOdb.php:173): エラー SQL[
insert into LOG_ADMIN(
    admin_id,
    action,
    app_id,
    target_id,
    message,
    created
) values (
    ?,
    ?,
    ?,
    ?,
    ?,
    now()
)] CODE[1146] MESSAGE[Table 'navit_subsidy.LOG_ADMIN' doesn't exist] [ERROR CODE(4)]
2016/07/10 18:30:01 Subsidy[8098](INFO): Subsidy_Cli_Action_BatchKillSessions.perform(/pb/Ethna/class/Ethna_Backend.php:364): killsessions: no list
2016/07/10 18:42:56 Subsidy[3982](INFO): Subsidy_Action_Login.perform(/pb/Ethna/class/Ethna_Backend.php:364): [] Subsidy_Action_Login!!
2016/07/10 19:00:02 Subsidy[387](INFO): Subsidy_Cli_Action_BatchKillSessions.perform(/pb/Ethna/class/Ethna_Backend.php:364): Kill User session : 41ca1b21676b028cb0b9b234f4b08be4d8501ae0b392fecd564f1c8d1a9ac1ad User ID : ebQ91465523182
2016/07/10 19:09:35 Subsidy[4783](INFO): Subsidy_Action_SecureRegistration.prepare(/pb/Ethna/class/Ethna_Backend.php:357): [] Subsidy_Action_SecureRegistration prepare()
2016/07/10 19:09:35 Subsidy[4783](INFO): Subsidy_Action_SecureRegistration.perform(/pb/Ethna/class/Ethna_Backend.php:364): [] Subsidy_Action_SecureRegistration perform()
2016/07/10 19:30:02 Subsidy[25125](INFO): Subsidy_Cli_Action_BatchKillSessions.perform(/pb/Ethna/class/Ethna_Backend.php:364): killsessions: no list
2016/07/10 20:00:02 Subsidy[14575](INFO): Subsidy_Cli_Action_BatchKillSessions.perform(/pb/Ethna/class/Ethna_Backend.php:364): killsessions: no list
2016/07/10 20:29:48 Subsidy[2161](INFO): Subsidy_Action_SecureRegistration.prepare(/pb/Ethna/class/Ethna_Backend.php:357): [] Subsidy_Action_SecureRegistration prepare()
2016/07/10 20:29:48 Subsidy[2161](INFO): Subsidy_Action_SecureRegistration.perform(/pb/Ethna/class/Ethna_Backend.php:364): [] Subsidy_Action_SecureRegistration perform()
2016/07/10 20:30:01 Subsidy[9244](INFO): Subsidy_Cli_Action_BatchKillSessions.perform(/pb/Ethna/class/Ethna_Backend.php:364): killsessions: no list
2016/07/10 20:38:38 Subsidy[20991](INFO): Subsidy_Action_SecureRegistration.prepare(/pb/Ethna/class/Ethna_Backend.php:357): [] Subsidy_Action_SecureRegistration prepare()
2016/07/10 20:38:38 Subsidy[20991](INFO): Subsidy_Action_SecureRegistration.perform(/pb/Ethna/class/Ethna_Backend.php:364): [] Subsidy_Action_SecureRegistration perform()
2016/07/10 20:42:50 Subsidy[20991](INFO): Subsidy_Action_SecureConfirm.prepare(/pb/Ethna/class/Ethna_Backend.php:357): [] Subsidy_Action_SecureConfirm prepare()
2016/07/10 20:42:50 Subsidy[20991](INFO): Subsidy_Action_SecureConfirm.perform(/pb/Ethna/class/Ethna_Backend.php:364): [] Subsidy_Action_SecureConfirm perform()
2016/07/10 20:42:50 Subsidy[20991](INFO): Subsidy_View_SecureConfirm.preforward(/pb/Ethna/class/Ethna_Controller.php:975): [] Subsidy_View_SecureConfirm preforward()
2016/07/10 20:42:55 Subsidy[20991](INFO): Subsidy_Action_SecureComplete.prepare(/pb/Ethna/class/Ethna_Backend.php:357): [] Subsidy_Action_SecureComplete prepare()
2016/07/10 20:42:57 Subsidy[20991](INFO): Subsidy_Action_SecureComplete.perform(/pb/Ethna/class/Ethna_Backend.php:364): [] Subsidy_Mail::mailsender[MAIL SEND OK] TO:<takayuki.syoji@gmail.com>
2016/07/10 20:42:58 Subsidy[20991](INFO): Subsidy_Action_SecureComplete.perform(/pb/Ethna/class/Ethna_Backend.php:364): [] Subsidy_Action_SecureComplete perform()
2016/07/10 20:42:58 Subsidy[20991](INFO): Subsidy_View_SecureComplete.preforward(/pb/Ethna/class/Ethna_Controller.php:975): [] Subsidy_View_SecureComplete preforward()
2016/07/10 21:00:02 Subsidy[7751](INFO): Subsidy_Cli_Action_BatchKillSessions.perform(/pb/Ethna/class/Ethna_Backend.php:364): killsessions: no list
2016/07/10 21:03:18 Subsidy[19852](INFO): Subsidy_Action_SecureRegistration.prepare(/pb/Ethna/class/Ethna_Backend.php:357): [] Subsidy_Action_SecureRegistration prepare()
2016/07/10 21:03:18 Subsidy[19852](INFO): Subsidy_Action_SecureRegistration.perform(/pb/Ethna/class/Ethna_Backend.php:364): [] Subsidy_Action_SecureRegistration perform()
2016/07/10 21:03:37 Subsidy[19852](INFO): Subsidy_Action_SecureConfirm.prepare(/pb/Ethna/class/Ethna_Backend.php:357): [] Subsidy_Action_SecureConfirm prepare()
2016/07/10 21:03:37 Subsidy[19852](INFO): Subsidy_Action_SecureConfirm.perform(/pb/Ethna/class/Ethna_Backend.php:364): [] Subsidy_Action_SecureConfirm perform()
2016/07/10 21:03:37 Subsidy[19852](INFO): Subsidy_View_SecureConfirm.preforward(/pb/Ethna/class/Ethna_Controller.php:975): [] Subsidy_View_SecureConfirm preforward()
2016/07/10 21:04:34 Subsidy[19852](INFO): Subsidy_Action_Login.perform(/pb/Ethna/class/Ethna_Backend.php:364): [] Subsidy_Action_Login!!
2016/07/10 21:05:00 Subsidy[19852](INFO): Subsidy_Action_LoginDo.prepare(/pb/Ethna/class/Ethna_Backend.php:357): [] view login_do
2016/07/10 21:05:00 Subsidy[19852](INFO): Subsidy_Authentication.auth(/app/action/Login/Do.php:121): login ->xV361468150976(庄司 誉幸)
2016/07/10 21:05:00 Subsidy[19852](ERR): Ethna_DB_ADOdb._query(/pb/Ethna/class/DB/Ethna_DB_ADOdb.php:173): エラー SQL[
insert into LOG_ADMIN(
    admin_id,
    action,
    app_id,
    target_id,
    message,
    created
) values (
    ?,
    ?,
    ?,
    ?,
    ?,
    now()
)] CODE[1146] MESSAGE[Table 'navit_subsidy.LOG_ADMIN' doesn't exist] [ERROR CODE(4)]
2016/07/10 21:05:35 Subsidy[19852](INFO): Subsidy_Action_SecureRegistration.prepare(/pb/Ethna/class/Ethna_Backend.php:357): [] Subsidy_Action_SecureRegistration prepare()
2016/07/10 21:05:35 Subsidy[19852](INFO): Subsidy_Action_SecureRegistration.perform(/pb/Ethna/class/Ethna_Backend.php:364): [] Subsidy_Action_SecureRegistration perform()
2016/07/10 21:05:36 Subsidy[19852](INFO): Subsidy_Action_SecureRegistration.prepare(/pb/Ethna/class/Ethna_Backend.php:357): [] Subsidy_Action_SecureRegistration prepare()
2016/07/10 21:05:36 Subsidy[19852](INFO): Subsidy_Action_SecureRegistration.perform(/pb/Ethna/class/Ethna_Backend.php:364): [] Subsidy_Action_SecureRegistration perform()
2016/07/10 21:30:02 Subsidy[5222](INFO): Subsidy_Cli_Action_BatchKillSessions.perform(/pb/Ethna/class/Ethna_Backend.php:364): killsessions: no list
2016/07/10 21:35:08 Subsidy[17900](INFO): Subsidy_Action_Login.perform(/pb/Ethna/class/Ethna_Backend.php:364): [] Subsidy_Action_Login!!
2016/07/10 21:50:27 Subsidy[7464](INFO): Subsidy_Action_Login.perform(/pb/Ethna/class/Ethna_Backend.php:364): [] Subsidy_Action_Login!!
2016/07/10 21:58:03 Subsidy[7464](INFO): Subsidy_Action_Login.perform(/pb/Ethna/class/Ethna_Backend.php:364): [] Subsidy_Action_Login!!
2016/07/10 21:59:19 Subsidy[7464](INFO): Subsidy_Action_SecureRegistration.prepare(/pb/Ethna/class/Ethna_Backend.php:357): [] Subsidy_Action_SecureRegistration prepare()
2016/07/10 21:59:19 Subsidy[7464](INFO): Subsidy_Action_SecureRegistration.perform(/pb/Ethna/class/Ethna_Backend.php:364): [] Subsidy_Action_SecureRegistration perform()
2016/07/10 22:00:02 Subsidy[8274](INFO): Subsidy_Cli_Action_BatchKillSessions.perform(/pb/Ethna/class/Ethna_Backend.php:364): Kill User session : 35c5141caa9f7b7f26c50e306459850ae9767764755a89a01ba76bd77ac85534 User ID : xV361468150976
2016/07/10 22:30:01 Subsidy[12694](INFO): Subsidy_Cli_Action_BatchKillSessions.perform(/pb/Ethna/class/Ethna_Backend.php:364): killsessions: no list
2016/07/10 22:44:13 Subsidy[14422](INFO): Subsidy_Action_SecureRegistration.prepare(/pb/Ethna/class/Ethna_Backend.php:357): [] Subsidy_Action_SecureRegistration prepare()
2016/07/10 22:44:13 Subsidy[14422](INFO): Subsidy_Action_SecureRegistration.perform(/pb/Ethna/class/Ethna_Backend.php:364): [] Subsidy_Action_SecureRegistration perform()
2016/07/10 23:00:02 Subsidy[17587](INFO): Subsidy_Cli_Action_BatchKillSessions.perform(/pb/Ethna/class/Ethna_Backend.php:364): killsessions: no list
2016/07/10 23:30:02 Subsidy[22842](INFO): Subsidy_Cli_Action_BatchKillSessions.perform(/pb/Ethna/class/Ethna_Backend.php:364): killsessions: no list
