server:
array (
  'PATH' => '/sbin:/usr/sbin:/bin:/usr/bin',
  'PWD' => '/home/navit/joseikin-now.com/xserver_php',
  'SHLVL' => '0',
  'FCGI_ROLE' => 'RESPONDER',
  'UNIQUE_ID' => 'V2s1tXiICicAAARootgAAAAj',
  'HTTP_HOST' => 'joseikin-now.com',
  'CONTENT_TYPE' => 'application/x-www-form-urlencoded',
  'HTTP_ORIGIN' => 'http://joseikin-now.com',
  'HTTP_COOKIE' => '_ga=GA1.2.1621872559.1464056550; _gat=1; _lftr1st=BVOuqJC3yGIVVjxrBtUBw4zP60P57F9C; PHPSESSID=4h3tnqoq79jeuoank9p623oe7lfn3nk6; SubsidySESSID=b8bfc0c61b021be54734075a7013b6dfa0cf490a0fe147098b5a8ec0fb12c43c',
  'CONTENT_LENGTH' => '33',
  'HTTP_CONNECTION' => 'close',
  'HTTP_ACCEPT' => 'text/html,application/xhtml+xml,application/xml;q=0.9,*/*;q=0.8',
  'HTTP_USER_AGENT' => 'Mozilla/5.0 (Macintosh; Intel Mac OS X 10_10_5) AppleWebKit/601.6.17 (KHTML, like Gecko) Version/9.1.1 Safari/601.6.17',
  'HTTP_REFERER' => 'http://joseikin-now.com/index.php?action_paymentconfirm=true',
  'HTTP_ACCEPT_LANGUAGE' => 'ja-jp',
  'HTTP_ACCEPT_ENCODING' => 'gzip, deflate',
  'SERVER_SIGNATURE' => '',
  'SERVER_SOFTWARE' => 'Apache',
  'SERVER_NAME' => 'joseikin-now.com',
  'SERVER_ADDR' => '157.112.155.118',
  'SERVER_PORT' => '80',
  'REMOTE_ADDR' => '153.192.81.224',
  'DOCUMENT_ROOT' => '/home/navit/joseikin-now.com/public_html',
  'SERVER_ADMIN' => 'webmaster@joseikin-now.com',
  'SCRIPT_FILENAME' => '/home/navit/joseikin-now.com/public_html/index.php',
  'REMOTE_PORT' => '61138',
  'GATEWAY_INTERFACE' => 'CGI/1.1',
  'SERVER_PROTOCOL' => 'HTTP/1.1',
  'REQUEST_METHOD' => 'POST',
  'QUERY_STRING' => '',
  'REQUEST_URI' => '/index.php',
  'SCRIPT_NAME' => '/index.php',
  'PHP_SELF' => '/index.php',
  'REQUEST_TIME' => 1466643893,
)

data:
array (
  'check_payment' => '1',
  'payment_method' => '1',
  'begin_date' => '2016年06月30日',
  'pay_date' => '2016年06月25日',
)

params:
array (
  'admin' => '1639',
  'amount' => '12960',
  'charge' => '16062301004510',
  'mail' => NULL,
)

url:
https://www.asjpayment.jp/cgi-bin/ps_payment.cgi?admin=1639&amount=12960&charge=16062301004510
