server:
array (
  'PATH' => '/sbin:/usr/sbin:/bin:/usr/bin',
  'PWD' => '/home/navit/joseikin-now.com/xserver_php',
  'SHLVL' => '0',
  'FCGI_ROLE' => 'RESPONDER',
  'UNIQUE_ID' => 'V0-MiHiICicAADKK@boAAABb',
  'HTTP_HOST' => 'joseikin-now.com',
  'HTTP_CONNECTION' => 'close',
  'CONTENT_LENGTH' => '33',
  'HTTP_CACHE_CONTROL' => 'max-age=0',
  'HTTP_ACCEPT' => 'text/html,application/xhtml+xml,application/xml;q=0.9,image/webp,*/*;q=0.8',
  'HTTP_ORIGIN' => 'http://joseikin-now.com',
  'HTTP_UPGRADE_INSECURE_REQUESTS' => '1',
  'HTTP_USER_AGENT' => 'Mozilla/5.0 (Windows NT 6.1; WOW64) AppleWebKit/537.36 (KHTML, like Gecko) Chrome/45.0.2454.85 Safari/537.36',
  'CONTENT_TYPE' => 'application/x-www-form-urlencoded',
  'HTTP_REFERER' => 'http://joseikin-now.com/index.php?action_paymentconfirm=true',
  'HTTP_ACCEPT_ENCODING' => 'gzip, deflate',
  'HTTP_ACCEPT_LANGUAGE' => 'ja,en-US;q=0.8,en;q=0.6',
  'HTTP_COOKIE' => '_lftr1st=15erXOO76q9my1Sj9qANrrjpLpu4Qihi; PHPSESSID=b744flk799kso585flsv734gkpophrq1; _gat=1; SubsidySESSID=ba3f0df1d744cc81ffd476603b94afd3451255d5f175836b5f1878edbb7af2b0; _ga=GA1.2.1282913466.1457492266',
  'SERVER_SIGNATURE' => '',
  'SERVER_SOFTWARE' => 'Apache',
  'SERVER_NAME' => 'joseikin-now.com',
  'SERVER_ADDR' => '157.112.155.118',
  'SERVER_PORT' => '80',
  'REMOTE_ADDR' => '14.12.67.128',
  'DOCUMENT_ROOT' => '/home/navit/joseikin-now.com/public_html',
  'SERVER_ADMIN' => 'webmaster@joseikin-now.com',
  'SCRIPT_FILENAME' => '/home/navit/joseikin-now.com/public_html/index.php',
  'REMOTE_PORT' => '41459',
  'GATEWAY_INTERFACE' => 'CGI/1.1',
  'SERVER_PROTOCOL' => 'HTTP/1.1',
  'REQUEST_METHOD' => 'POST',
  'QUERY_STRING' => '',
  'REQUEST_URI' => '/index.php',
  'SCRIPT_NAME' => '/index.php',
  'PHP_SELF' => '/index.php',
  'REQUEST_TIME' => 1464847496,
)

data:
array (
  'check_payment' => '1',
  'payment_method' => '1',
  'begin_date' => '2016年６月２日',
  'pay_date' => '2016年６月２日',
)

params:
array (
  'admin' => '1639',
  'amount' => '12960',
  'charge' => '16060201001988',
  'mail' => NULL,
)

url:
https://www.asjpayment.jp/cgi-bin/ps_payment.cgi?admin=1639&amount=12960&charge=16060201001988
